
                            <table border=0 cellpadding=0 cellspacing=0 width=100% align=left>
                              <tr>
                                <td width=100% align=left>

                                  <table border=0 cellpadding=0 cellspacing=0 width=402 height=37 align=left>
                                    <tr>
                                      <td width=402 height=37 bgcolor=#000000 align=center valign=center>
                                        <table border=0 cellpadding=3 cellspacing=0 width=400 height=35>
                                          <tr>
                                            <td width=100% align=center valign=center bgcolor=#2288dd>
                                              <span class=tittxt>Error: Fatal Proxy TCP Error</span>
                                            </td>
                                          </tr>
                                        </table>
                                      </td>
                                    </tr>
                                  </table>

                                </td>
                              </tr>
                              <tr>
                                <td width=100% align=left>

                                  <br>
                                  <span class=gotxt><b>Error with URL:</b> #]url</span><br>
                                  <hr width=100%>
                                  <div align=justify class=funtxt>

                                    <b>Explanation: - </b>
                                    A TCP connection could not be made with the internal proxy. This could be a temporay problem, so you should try refreshing this page. If the problem persists then there is something wrong with the internal proxy.<br>
                                    <b>What This All Means: - </b>
                                    This error has nothing to do with anything you've done. All responsibility falls onto the person who set this up on this internet connection. This could be a temporary fault, so I recommend pressing REFRESH/RELOAD on your browser.

                                  </div>
                                </td>
                              </tr>
                            </table>
